%YAML 1.1
%TAG !u! tag:unity3d.com,2011:
--- !u!74 &7400000
AnimationClip:
  m_ObjectHideFlags: 0
  m_CorrespondingSourceObject: {fileID: 0}
  m_PrefabInstance: {fileID: 0}
  m_PrefabAsset: {fileID: 0}
  m_Name: Walk
  serializedVersion: 6
  m_Legacy: 0
  m_Compressed: 0
  m_UseHighQualityCurve: 1
  m_RotationCurves: []
  m_CompressedRotationCurves: []
  m_EulerCurves: []
  m_PositionCurves: []
  m_ScaleCurves: []
  m_FloatCurves: []
  m_PPtrCurves:
  - curve:
    - time: 0
      value: {fileID: -8624246290351694174, guid: d69ca9e28039dad49a48f53bd64aca04, type: 3}
    - time: 0.04
      value: {fileID: 3801943328980019525, guid: d69ca9e28039dad49a48f53bd64aca04, type: 3}
    - time: 0.08
      value: {fileID: -1193980094962732136, guid: d69ca9e28039dad49a48f53bd64aca04, type: 3}
    - time: 0.12
      value: {fileID: -7606293264188495512, guid: d69ca9e28039dad49a48f53bd64aca04, type: 3}
    - time: 0.16
      value: {fileID: -6172629916289585737, guid: d69ca9e28039dad49a48f53bd64aca04, type: 3}
    - time: 0.2
      value: {fileID: 8453472961428482545, guid: d69ca9e28039dad49a48f53bd64aca04, type: 3}
    - time: 0.24
      value: {fileID: 7929009068656912319, guid: d69ca9e28039dad49a48f53bd64aca04, type: 3}
    - time: 0.28
      value: {fileID: 6300220171983489682, guid: d69ca9e28039dad49a48f53bd64aca04, type: 3}
    - time: 0.32
      value: {fileID: 7384511548894561916, guid: d69ca9e28039dad49a48f53bd64aca04, type: 3}
    - time: 0.36
      value: {fileID: 6678041229872936837, guid: d69ca9e28039dad49a48f53bd64aca04, type: 3}
    - time: 0.4
      value: {fileID: -3272538903760083460, guid: d69ca9e28039dad49a48f53bd64aca04, type: 3}
    - time: 0.44
      value: {fileID: 8342023483735514255, guid: d69ca9e28039dad49a48f53bd64aca04, type: 3}
    - time: 0.48
      value: {fileID: 9017270360667619681, guid: d69ca9e28039dad49a48f53bd64aca04, type: 3}
    - time: 0.52
      value: {fileID: 5387845325834616780, guid: d69ca9e28039dad49a48f53bd64aca04, type: 3}
    - time: 0.56
      value: {fileID: 4402644372625874123, guid: d69ca9e28039dad49a48f53bd64aca04, type: 3}
    - time: 0.6
      value: {fileID: 1764667472174359962, guid: d69ca9e28039dad49a48f53bd64aca04, type: 3}
    - time: 0.64
      value: {fileID: 8386544092831586664, guid: d69ca9e28039dad49a48f53bd64aca04, type: 3}
    - time: 0.68
      value: {fileID: -9202888399115956228, guid: d69ca9e28039dad49a48f53bd64aca04, type: 3}
    - time: 0.72
      value: {fileID: -4643308484421488712, guid: d69ca9e28039dad49a48f53bd64aca04, type: 3}
    - time: 0.76
      value: {fileID: -4258566434148508612, guid: d69ca9e28039dad49a48f53bd64aca04, type: 3}
    - time: 0.8
      value: {fileID: 2796537826519092075, guid: d69ca9e28039dad49a48f53bd64aca04, type: 3}
    - time: 0.84
      value: {fileID: -3344892907595716083, guid: d69ca9e28039dad49a48f53bd64aca04, type: 3}
    - time: 0.88
      value: {fileID: -4308659243948378621, guid: d69ca9e28039dad49a48f53bd64aca04, type: 3}
    - time: 0.92
      value: {fileID: 7643243359293423529, guid: d69ca9e28039dad49a48f53bd64aca04, type: 3}
    - time: 0.96
      value: {fileID: -889973191159869210, guid: d69ca9e28039dad49a48f53bd64aca04, type: 3}
    - time: 1
      value: {fileID: -1743656497551759587, guid: d69ca9e28039dad49a48f53bd64aca04, type: 3}
    - time: 1.04
      value: {fileID: 8942616062355107351, guid: d69ca9e28039dad49a48f53bd64aca04, type: 3}
    - time: 1.08
      value: {fileID: -6429755488074391639, guid: d69ca9e28039dad49a48f53bd64aca04, type: 3}
    - time: 1.12
      value: {fileID: 4479606238943137641, guid: d69ca9e28039dad49a48f53bd64aca04, type: 3}
    - time: 1.16
      value: {fileID: 389400428951127126, guid: d69ca9e28039dad49a48f53bd64aca04, type: 3}
    - time: 1.2
      value: {fileID: -3743247265334526619, guid: d69ca9e28039dad49a48f53bd64aca04, type: 3}
    attribute: m_Sprite
    path: 
    classID: 212
    script: {fileID: 0}
  m_SampleRate: 25
  m_WrapMode: 0
  m_Bounds:
    m_Center: {x: 0, y: 0, z: 0}
    m_Extent: {x: 0, y: 0, z: 0}
  m_ClipBindingConstant:
    genericBindings:
    - serializedVersion: 2
      path: 0
      attribute: 0
      script: {fileID: 0}
      typeID: 212
      customType: 23
      isPPtrCurve: 1
    pptrCurveMapping:
    - {fileID: -8624246290351694174, guid: d69ca9e28039dad49a48f53bd64aca04, type: 3}
    - {fileID: 3801943328980019525, guid: d69ca9e28039dad49a48f53bd64aca04, type: 3}
    - {fileID: -1193980094962732136, guid: d69ca9e28039dad49a48f53bd64aca04, type: 3}
    - {fileID: -7606293264188495512, guid: d69ca9e28039dad49a48f53bd64aca04, type: 3}
    - {fileID: -6172629916289585737, guid: d69ca9e28039dad49a48f53bd64aca04, type: 3}
    - {fileID: 8453472961428482545, guid: d69ca9e28039dad49a48f53bd64aca04, type: 3}
    - {fileID: 7929009068656912319, guid: d69ca9e28039dad49a48f53bd64aca04, type: 3}
    - {fileID: 6300220171983489682, guid: d69ca9e28039dad49a48f53bd64aca04, type: 3}
    - {fileID: 7384511548894561916, guid: d69ca9e28039dad49a48f53bd64aca04, type: 3}
    - {fileID: 6678041229872936837, guid: d69ca9e28039dad49a48f53bd64aca04, type: 3}
    - {fileID: -3272538903760083460, guid: d69ca9e28039dad49a48f53bd64aca04, type: 3}
    - {fileID: 8342023483735514255, guid: d69ca9e28039dad49a48f53bd64aca04, type: 3}
    - {fileID: 9017270360667619681, guid: d69ca9e28039dad49a48f53bd64aca04, type: 3}
    - {fileID: 5387845325834616780, guid: d69ca9e28039dad49a48f53bd64aca04, type: 3}
    - {fileID: 4402644372625874123, guid: d69ca9e28039dad49a48f53bd64aca04, type: 3}
    - {fileID: 1764667472174359962, guid: d69ca9e28039dad49a48f53bd64aca04, type: 3}
    - {fileID: 8386544092831586664, guid: d69ca9e28039dad49a48f53bd64aca04, type: 3}
    - {fileID: -9202888399115956228, guid: d69ca9e28039dad49a48f53bd64aca04, type: 3}
    - {fileID: -4643308484421488712, guid: d69ca9e28039dad49a48f53bd64aca04, type: 3}
    - {fileID: -4258566434148508612, guid: d69ca9e28039dad49a48f53bd64aca04, type: 3}
    - {fileID: 2796537826519092075, guid: d69ca9e28039dad49a48f53bd64aca04, type: 3}
    - {fileID: -3344892907595716083, guid: d69ca9e28039dad49a48f53bd64aca04, type: 3}
    - {fileID: -4308659243948378621, guid: d69ca9e28039dad49a48f53bd64aca04, type: 3}
    - {fileID: 7643243359293423529, guid: d69ca9e28039dad49a48f53bd64aca04, type: 3}
    - {fileID: -889973191159869210, guid: d69ca9e28039dad49a48f53bd64aca04, type: 3}
    - {fileID: -1743656497551759587, guid: d69ca9e28039dad49a48f53bd64aca04, type: 3}
    - {fileID: 8942616062355107351, guid: d69ca9e28039dad49a48f53bd64aca04, type: 3}
    - {fileID: -6429755488074391639, guid: d69ca9e28039dad49a48f53bd64aca04, type: 3}
    - {fileID: 4479606238943137641, guid: d69ca9e28039dad49a48f53bd64aca04, type: 3}
    - {fileID: 389400428951127126, guid: d69ca9e28039dad49a48f53bd64aca04, type: 3}
    - {fileID: -3743247265334526619, guid: d69ca9e28039dad49a48f53bd64aca04, type: 3}
  m_AnimationClipSettings:
    serializedVersion: 2
    m_AdditiveReferencePoseClip: {fileID: 0}
    m_AdditiveReferencePoseTime: 0
    m_StartTime: 0
    m_StopTime: 1.24
    m_OrientationOffsetY: 0
    m_Level: 0
    m_CycleOffset: 0
    m_HasAdditiveReferencePose: 0
    m_LoopTime: 1
    m_LoopBlend: 0
    m_LoopBlendOrientation: 0
    m_LoopBlendPositionY: 0
    m_LoopBlendPositionXZ: 0
    m_KeepOriginalOrientation: 0
    m_KeepOriginalPositionY: 1
    m_KeepOriginalPositionXZ: 0
    m_HeightFromFeet: 0
    m_Mirror: 0
  m_EditorCurves: []
  m_EulerEditorCurves: []
  m_HasGenericRootTransform: 0
  m_HasMotionFloatCurves: 0
  m_Events: []
