%YAML 1.1
%TAG !u! tag:unity3d.com,2011:
--- !u!74 &7400000
AnimationClip:
  m_ObjectHideFlags: 0
  m_CorrespondingSourceObject: {fileID: 0}
  m_PrefabInstance: {fileID: 0}
  m_PrefabAsset: {fileID: 0}
  m_Name: Death
  serializedVersion: 6
  m_Legacy: 0
  m_Compressed: 0
  m_UseHighQualityCurve: 1
  m_RotationCurves: []
  m_CompressedRotationCurves: []
  m_EulerCurves: []
  m_PositionCurves: []
  m_ScaleCurves: []
  m_FloatCurves: []
  m_PPtrCurves:
  - curve:
    - time: 0
      value: {fileID: -6799037162908250334, guid: 74c674f2b6c787f449d0103e3a1598a2, type: 3}
    - time: 0.05
      value: {fileID: 8994613460524660109, guid: 74c674f2b6c787f449d0103e3a1598a2, type: 3}
    - time: 0.1
      value: {fileID: 2764075577351296866, guid: 74c674f2b6c787f449d0103e3a1598a2, type: 3}
    - time: 0.15
      value: {fileID: -1868238131487459795, guid: 74c674f2b6c787f449d0103e3a1598a2, type: 3}
    - time: 0.2
      value: {fileID: 4305503654151451631, guid: 74c674f2b6c787f449d0103e3a1598a2, type: 3}
    - time: 0.25
      value: {fileID: -1268726175404827307, guid: 74c674f2b6c787f449d0103e3a1598a2, type: 3}
    - time: 0.3
      value: {fileID: -7003423062508917268, guid: 74c674f2b6c787f449d0103e3a1598a2, type: 3}
    - time: 0.35
      value: {fileID: 6737963221835007001, guid: 74c674f2b6c787f449d0103e3a1598a2, type: 3}
    - time: 0.4
      value: {fileID: -2315108327276389883, guid: 74c674f2b6c787f449d0103e3a1598a2, type: 3}
    - time: 0.45
      value: {fileID: -6012711312478604429, guid: 74c674f2b6c787f449d0103e3a1598a2, type: 3}
    - time: 0.5
      value: {fileID: 4141910736014510118, guid: 74c674f2b6c787f449d0103e3a1598a2, type: 3}
    - time: 0.55
      value: {fileID: 639870471179302638, guid: 74c674f2b6c787f449d0103e3a1598a2, type: 3}
    - time: 0.6
      value: {fileID: -5666775881842761771, guid: 74c674f2b6c787f449d0103e3a1598a2, type: 3}
    - time: 0.65
      value: {fileID: -940326158150740239, guid: 74c674f2b6c787f449d0103e3a1598a2, type: 3}
    - time: 0.7
      value: {fileID: 4444486879208123592, guid: 74c674f2b6c787f449d0103e3a1598a2, type: 3}
    - time: 0.75
      value: {fileID: -2345265936134657272, guid: 74c674f2b6c787f449d0103e3a1598a2, type: 3}
    attribute: m_Sprite
    path: 
    classID: 212
    script: {fileID: 0}
  m_SampleRate: 20
  m_WrapMode: 0
  m_Bounds:
    m_Center: {x: 0, y: 0, z: 0}
    m_Extent: {x: 0, y: 0, z: 0}
  m_ClipBindingConstant:
    genericBindings:
    - serializedVersion: 2
      path: 0
      attribute: 0
      script: {fileID: 0}
      typeID: 212
      customType: 23
      isPPtrCurve: 1
    pptrCurveMapping:
    - {fileID: -6799037162908250334, guid: 74c674f2b6c787f449d0103e3a1598a2, type: 3}
    - {fileID: 8994613460524660109, guid: 74c674f2b6c787f449d0103e3a1598a2, type: 3}
    - {fileID: 2764075577351296866, guid: 74c674f2b6c787f449d0103e3a1598a2, type: 3}
    - {fileID: -1868238131487459795, guid: 74c674f2b6c787f449d0103e3a1598a2, type: 3}
    - {fileID: 4305503654151451631, guid: 74c674f2b6c787f449d0103e3a1598a2, type: 3}
    - {fileID: -1268726175404827307, guid: 74c674f2b6c787f449d0103e3a1598a2, type: 3}
    - {fileID: -7003423062508917268, guid: 74c674f2b6c787f449d0103e3a1598a2, type: 3}
    - {fileID: 6737963221835007001, guid: 74c674f2b6c787f449d0103e3a1598a2, type: 3}
    - {fileID: -2315108327276389883, guid: 74c674f2b6c787f449d0103e3a1598a2, type: 3}
    - {fileID: -6012711312478604429, guid: 74c674f2b6c787f449d0103e3a1598a2, type: 3}
    - {fileID: 4141910736014510118, guid: 74c674f2b6c787f449d0103e3a1598a2, type: 3}
    - {fileID: 639870471179302638, guid: 74c674f2b6c787f449d0103e3a1598a2, type: 3}
    - {fileID: -5666775881842761771, guid: 74c674f2b6c787f449d0103e3a1598a2, type: 3}
    - {fileID: -940326158150740239, guid: 74c674f2b6c787f449d0103e3a1598a2, type: 3}
    - {fileID: 4444486879208123592, guid: 74c674f2b6c787f449d0103e3a1598a2, type: 3}
    - {fileID: -2345265936134657272, guid: 74c674f2b6c787f449d0103e3a1598a2, type: 3}
  m_AnimationClipSettings:
    serializedVersion: 2
    m_AdditiveReferencePoseClip: {fileID: 0}
    m_AdditiveReferencePoseTime: 0
    m_StartTime: 0
    m_StopTime: 0.8
    m_OrientationOffsetY: 0
    m_Level: 0
    m_CycleOffset: 0
    m_HasAdditiveReferencePose: 0
    m_LoopTime: 0
    m_LoopBlend: 0
    m_LoopBlendOrientation: 0
    m_LoopBlendPositionY: 0
    m_LoopBlendPositionXZ: 0
    m_KeepOriginalOrientation: 0
    m_KeepOriginalPositionY: 1
    m_KeepOriginalPositionXZ: 0
    m_HeightFromFeet: 0
    m_Mirror: 0
  m_EditorCurves: []
  m_EulerEditorCurves: []
  m_HasGenericRootTransform: 0
  m_HasMotionFloatCurves: 0
  m_Events: []
