%YAML 1.1
%TAG !u! tag:unity3d.com,2011:
--- !u!74 &7400000
AnimationClip:
  m_ObjectHideFlags: 0
  m_CorrespondingSourceObject: {fileID: 0}
  m_PrefabInstance: {fileID: 0}
  m_PrefabAsset: {fileID: 0}
  m_Name: Idle
  serializedVersion: 6
  m_Legacy: 0
  m_Compressed: 0
  m_UseHighQualityCurve: 1
  m_RotationCurves: []
  m_CompressedRotationCurves: []
  m_EulerCurves: []
  m_PositionCurves: []
  m_ScaleCurves: []
  m_FloatCurves: []
  m_PPtrCurves:
  - curve:
    - time: 0
      value: {fileID: 8488328654572304352, guid: b4b03e82e5e22b24e817bd414ce16663, type: 3}
    - time: 0.05
      value: {fileID: 3789744679490320462, guid: b4b03e82e5e22b24e817bd414ce16663, type: 3}
    - time: 0.1
      value: {fileID: 2240755264892537048, guid: b4b03e82e5e22b24e817bd414ce16663, type: 3}
    - time: 0.15
      value: {fileID: 2034087598805426463, guid: b4b03e82e5e22b24e817bd414ce16663, type: 3}
    - time: 0.2
      value: {fileID: 8271520994771697968, guid: b4b03e82e5e22b24e817bd414ce16663, type: 3}
    - time: 0.25
      value: {fileID: 5978591873814285882, guid: b4b03e82e5e22b24e817bd414ce16663, type: 3}
    - time: 0.3
      value: {fileID: 2975933473413373919, guid: b4b03e82e5e22b24e817bd414ce16663, type: 3}
    - time: 0.35
      value: {fileID: 2697517506866962995, guid: b4b03e82e5e22b24e817bd414ce16663, type: 3}
    - time: 0.4
      value: {fileID: 2676318219495429717, guid: b4b03e82e5e22b24e817bd414ce16663, type: 3}
    - time: 0.45
      value: {fileID: 6094941995225229456, guid: b4b03e82e5e22b24e817bd414ce16663, type: 3}
    - time: 0.5
      value: {fileID: 8400359375924378236, guid: b4b03e82e5e22b24e817bd414ce16663, type: 3}
    - time: 0.55
      value: {fileID: -4214323086006587610, guid: b4b03e82e5e22b24e817bd414ce16663, type: 3}
    - time: 0.6
      value: {fileID: 8333105682740153441, guid: b4b03e82e5e22b24e817bd414ce16663, type: 3}
    - time: 0.65
      value: {fileID: 5085919891148241624, guid: b4b03e82e5e22b24e817bd414ce16663, type: 3}
    - time: 0.7
      value: {fileID: -1595841296523368303, guid: b4b03e82e5e22b24e817bd414ce16663, type: 3}
    - time: 0.75
      value: {fileID: -1847167111143412942, guid: b4b03e82e5e22b24e817bd414ce16663, type: 3}
    - time: 0.8
      value: {fileID: 8512195950661516566, guid: b4b03e82e5e22b24e817bd414ce16663, type: 3}
    - time: 0.85
      value: {fileID: -4062534944093287385, guid: b4b03e82e5e22b24e817bd414ce16663, type: 3}
    - time: 0.9
      value: {fileID: -3887038088314839463, guid: b4b03e82e5e22b24e817bd414ce16663, type: 3}
    - time: 0.95
      value: {fileID: 2076181961319369395, guid: b4b03e82e5e22b24e817bd414ce16663, type: 3}
    - time: 1
      value: {fileID: 7277578121240579801, guid: b4b03e82e5e22b24e817bd414ce16663, type: 3}
    - time: 1.05
      value: {fileID: -6791385889332444573, guid: b4b03e82e5e22b24e817bd414ce16663, type: 3}
    - time: 1.1
      value: {fileID: -3691904571589228901, guid: b4b03e82e5e22b24e817bd414ce16663, type: 3}
    - time: 1.15
      value: {fileID: 1311522127516010043, guid: b4b03e82e5e22b24e817bd414ce16663, type: 3}
    - time: 1.2
      value: {fileID: 8362586166583545227, guid: b4b03e82e5e22b24e817bd414ce16663, type: 3}
    - time: 1.25
      value: {fileID: -6991495308753009702, guid: b4b03e82e5e22b24e817bd414ce16663, type: 3}
    - time: 1.3
      value: {fileID: 1563788413419366110, guid: b4b03e82e5e22b24e817bd414ce16663, type: 3}
    - time: 1.35
      value: {fileID: -8722554030914099318, guid: b4b03e82e5e22b24e817bd414ce16663, type: 3}
    - time: 1.4
      value: {fileID: 8432091383434089425, guid: b4b03e82e5e22b24e817bd414ce16663, type: 3}
    attribute: m_Sprite
    path: 
    classID: 212
    script: {fileID: 0}
  m_SampleRate: 20
  m_WrapMode: 0
  m_Bounds:
    m_Center: {x: 0, y: 0, z: 0}
    m_Extent: {x: 0, y: 0, z: 0}
  m_ClipBindingConstant:
    genericBindings:
    - serializedVersion: 2
      path: 0
      attribute: 0
      script: {fileID: 0}
      typeID: 212
      customType: 23
      isPPtrCurve: 1
    pptrCurveMapping:
    - {fileID: 8488328654572304352, guid: b4b03e82e5e22b24e817bd414ce16663, type: 3}
    - {fileID: 3789744679490320462, guid: b4b03e82e5e22b24e817bd414ce16663, type: 3}
    - {fileID: 2240755264892537048, guid: b4b03e82e5e22b24e817bd414ce16663, type: 3}
    - {fileID: 2034087598805426463, guid: b4b03e82e5e22b24e817bd414ce16663, type: 3}
    - {fileID: 8271520994771697968, guid: b4b03e82e5e22b24e817bd414ce16663, type: 3}
    - {fileID: 5978591873814285882, guid: b4b03e82e5e22b24e817bd414ce16663, type: 3}
    - {fileID: 2975933473413373919, guid: b4b03e82e5e22b24e817bd414ce16663, type: 3}
    - {fileID: 2697517506866962995, guid: b4b03e82e5e22b24e817bd414ce16663, type: 3}
    - {fileID: 2676318219495429717, guid: b4b03e82e5e22b24e817bd414ce16663, type: 3}
    - {fileID: 6094941995225229456, guid: b4b03e82e5e22b24e817bd414ce16663, type: 3}
    - {fileID: 8400359375924378236, guid: b4b03e82e5e22b24e817bd414ce16663, type: 3}
    - {fileID: -4214323086006587610, guid: b4b03e82e5e22b24e817bd414ce16663, type: 3}
    - {fileID: 8333105682740153441, guid: b4b03e82e5e22b24e817bd414ce16663, type: 3}
    - {fileID: 5085919891148241624, guid: b4b03e82e5e22b24e817bd414ce16663, type: 3}
    - {fileID: -1595841296523368303, guid: b4b03e82e5e22b24e817bd414ce16663, type: 3}
    - {fileID: -1847167111143412942, guid: b4b03e82e5e22b24e817bd414ce16663, type: 3}
    - {fileID: 8512195950661516566, guid: b4b03e82e5e22b24e817bd414ce16663, type: 3}
    - {fileID: -4062534944093287385, guid: b4b03e82e5e22b24e817bd414ce16663, type: 3}
    - {fileID: -3887038088314839463, guid: b4b03e82e5e22b24e817bd414ce16663, type: 3}
    - {fileID: 2076181961319369395, guid: b4b03e82e5e22b24e817bd414ce16663, type: 3}
    - {fileID: 7277578121240579801, guid: b4b03e82e5e22b24e817bd414ce16663, type: 3}
    - {fileID: -6791385889332444573, guid: b4b03e82e5e22b24e817bd414ce16663, type: 3}
    - {fileID: -3691904571589228901, guid: b4b03e82e5e22b24e817bd414ce16663, type: 3}
    - {fileID: 1311522127516010043, guid: b4b03e82e5e22b24e817bd414ce16663, type: 3}
    - {fileID: 8362586166583545227, guid: b4b03e82e5e22b24e817bd414ce16663, type: 3}
    - {fileID: -6991495308753009702, guid: b4b03e82e5e22b24e817bd414ce16663, type: 3}
    - {fileID: 1563788413419366110, guid: b4b03e82e5e22b24e817bd414ce16663, type: 3}
    - {fileID: -8722554030914099318, guid: b4b03e82e5e22b24e817bd414ce16663, type: 3}
    - {fileID: 8432091383434089425, guid: b4b03e82e5e22b24e817bd414ce16663, type: 3}
  m_AnimationClipSettings:
    serializedVersion: 2
    m_AdditiveReferencePoseClip: {fileID: 0}
    m_AdditiveReferencePoseTime: 0
    m_StartTime: 0
    m_StopTime: 1.4499999
    m_OrientationOffsetY: 0
    m_Level: 0
    m_CycleOffset: 0
    m_HasAdditiveReferencePose: 0
    m_LoopTime: 1
    m_LoopBlend: 0
    m_LoopBlendOrientation: 0
    m_LoopBlendPositionY: 0
    m_LoopBlendPositionXZ: 0
    m_KeepOriginalOrientation: 0
    m_KeepOriginalPositionY: 1
    m_KeepOriginalPositionXZ: 0
    m_HeightFromFeet: 0
    m_Mirror: 0
  m_EditorCurves: []
  m_EulerEditorCurves: []
  m_HasGenericRootTransform: 0
  m_HasMotionFloatCurves: 0
  m_Events: []
