%YAML 1.1
%TAG !u! tag:unity3d.com,2011:
--- !u!74 &7400000
AnimationClip:
  m_ObjectHideFlags: 0
  m_CorrespondingSourceObject: {fileID: 0}
  m_PrefabInstance: {fileID: 0}
  m_PrefabAsset: {fileID: 0}
  m_Name: Death
  serializedVersion: 6
  m_Legacy: 0
  m_Compressed: 0
  m_UseHighQualityCurve: 1
  m_RotationCurves: []
  m_CompressedRotationCurves: []
  m_EulerCurves: []
  m_PositionCurves: []
  m_ScaleCurves: []
  m_FloatCurves: []
  m_PPtrCurves:
  - curve:
    - time: 0
      value: {fileID: 6991849013916550155, guid: 4fd90ca55cd6d4e42bd9679d2bc0dc4d, type: 3}
    - time: 0.033333335
      value: {fileID: -276728812324164698, guid: 4fd90ca55cd6d4e42bd9679d2bc0dc4d, type: 3}
    - time: 0.06666667
      value: {fileID: 3156895337291164288, guid: 4fd90ca55cd6d4e42bd9679d2bc0dc4d, type: 3}
    - time: 0.1
      value: {fileID: 1400002288684528572, guid: 4fd90ca55cd6d4e42bd9679d2bc0dc4d, type: 3}
    - time: 0.13333334
      value: {fileID: -1891625820773287384, guid: 4fd90ca55cd6d4e42bd9679d2bc0dc4d, type: 3}
    - time: 0.16666667
      value: {fileID: -5789737788129074030, guid: 4fd90ca55cd6d4e42bd9679d2bc0dc4d, type: 3}
    - time: 0.2
      value: {fileID: 3968659893341466949, guid: 4fd90ca55cd6d4e42bd9679d2bc0dc4d, type: 3}
    - time: 0.23333333
      value: {fileID: 6495761399759928590, guid: 4fd90ca55cd6d4e42bd9679d2bc0dc4d, type: 3}
    - time: 0.26666668
      value: {fileID: 4800267807231483719, guid: 4fd90ca55cd6d4e42bd9679d2bc0dc4d, type: 3}
    - time: 0.3
      value: {fileID: -6126746645354384401, guid: 4fd90ca55cd6d4e42bd9679d2bc0dc4d, type: 3}
    - time: 0.33333334
      value: {fileID: 2990493390978864817, guid: 4fd90ca55cd6d4e42bd9679d2bc0dc4d, type: 3}
    - time: 0.36666667
      value: {fileID: -2786331238167018718, guid: 4fd90ca55cd6d4e42bd9679d2bc0dc4d, type: 3}
    - time: 0.4
      value: {fileID: -4444752178724111745, guid: 4fd90ca55cd6d4e42bd9679d2bc0dc4d, type: 3}
    - time: 0.43333334
      value: {fileID: 1782900873588056695, guid: 4fd90ca55cd6d4e42bd9679d2bc0dc4d, type: 3}
    - time: 0.46666667
      value: {fileID: -7152224470875533404, guid: 4fd90ca55cd6d4e42bd9679d2bc0dc4d, type: 3}
    - time: 0.5
      value: {fileID: 7483363142473959995, guid: 4fd90ca55cd6d4e42bd9679d2bc0dc4d, type: 3}
    - time: 0.53333336
      value: {fileID: 2223956272848545170, guid: 4fd90ca55cd6d4e42bd9679d2bc0dc4d, type: 3}
    - time: 0.56666666
      value: {fileID: -898221585893318736, guid: 4fd90ca55cd6d4e42bd9679d2bc0dc4d, type: 3}
    - time: 0.6
      value: {fileID: -5412344436964035232, guid: 4fd90ca55cd6d4e42bd9679d2bc0dc4d, type: 3}
    - time: 0.6333333
      value: {fileID: 8119540360339246775, guid: 4fd90ca55cd6d4e42bd9679d2bc0dc4d, type: 3}
    - time: 0.6666667
      value: {fileID: -9220036589329865605, guid: 4fd90ca55cd6d4e42bd9679d2bc0dc4d, type: 3}
    - time: 0.7
      value: {fileID: 4888307295420968313, guid: 4fd90ca55cd6d4e42bd9679d2bc0dc4d, type: 3}
    - time: 0.73333335
      value: {fileID: 8255461209361531321, guid: 4fd90ca55cd6d4e42bd9679d2bc0dc4d, type: 3}
    - time: 0.76666665
      value: {fileID: 8942902939620416142, guid: 4fd90ca55cd6d4e42bd9679d2bc0dc4d, type: 3}
    - time: 0.8
      value: {fileID: 3213321072100643605, guid: 4fd90ca55cd6d4e42bd9679d2bc0dc4d, type: 3}
    - time: 0.8333333
      value: {fileID: -2010679181545164273, guid: 4fd90ca55cd6d4e42bd9679d2bc0dc4d, type: 3}
    - time: 0.8666667
      value: {fileID: 1339252702868872449, guid: 4fd90ca55cd6d4e42bd9679d2bc0dc4d, type: 3}
    - time: 0.9
      value: {fileID: 6683010304627739023, guid: 4fd90ca55cd6d4e42bd9679d2bc0dc4d, type: 3}
    - time: 0.93333334
      value: {fileID: 5166462774684348496, guid: 4fd90ca55cd6d4e42bd9679d2bc0dc4d, type: 3}
    - time: 0.96666664
      value: {fileID: 422065410153986026, guid: 4fd90ca55cd6d4e42bd9679d2bc0dc4d, type: 3}
    - time: 1
      value: {fileID: 665540292992914503, guid: 4fd90ca55cd6d4e42bd9679d2bc0dc4d, type: 3}
    - time: 1.0333333
      value: {fileID: 2739407449552376857, guid: 4fd90ca55cd6d4e42bd9679d2bc0dc4d, type: 3}
    - time: 1.0666667
      value: {fileID: -1941594331818043048, guid: 4fd90ca55cd6d4e42bd9679d2bc0dc4d, type: 3}
    - time: 1.1
      value: {fileID: -1362698067014156362, guid: 4fd90ca55cd6d4e42bd9679d2bc0dc4d, type: 3}
    - time: 1.1333333
      value: {fileID: 2456022197089939424, guid: 4fd90ca55cd6d4e42bd9679d2bc0dc4d, type: 3}
    attribute: m_Sprite
    path: 
    classID: 212
    script: {fileID: 0}
  m_SampleRate: 30
  m_WrapMode: 0
  m_Bounds:
    m_Center: {x: 0, y: 0, z: 0}
    m_Extent: {x: 0, y: 0, z: 0}
  m_ClipBindingConstant:
    genericBindings:
    - serializedVersion: 2
      path: 0
      attribute: 0
      script: {fileID: 0}
      typeID: 212
      customType: 23
      isPPtrCurve: 1
    pptrCurveMapping:
    - {fileID: 6991849013916550155, guid: 4fd90ca55cd6d4e42bd9679d2bc0dc4d, type: 3}
    - {fileID: -276728812324164698, guid: 4fd90ca55cd6d4e42bd9679d2bc0dc4d, type: 3}
    - {fileID: 3156895337291164288, guid: 4fd90ca55cd6d4e42bd9679d2bc0dc4d, type: 3}
    - {fileID: 1400002288684528572, guid: 4fd90ca55cd6d4e42bd9679d2bc0dc4d, type: 3}
    - {fileID: -1891625820773287384, guid: 4fd90ca55cd6d4e42bd9679d2bc0dc4d, type: 3}
    - {fileID: -5789737788129074030, guid: 4fd90ca55cd6d4e42bd9679d2bc0dc4d, type: 3}
    - {fileID: 3968659893341466949, guid: 4fd90ca55cd6d4e42bd9679d2bc0dc4d, type: 3}
    - {fileID: 6495761399759928590, guid: 4fd90ca55cd6d4e42bd9679d2bc0dc4d, type: 3}
    - {fileID: 4800267807231483719, guid: 4fd90ca55cd6d4e42bd9679d2bc0dc4d, type: 3}
    - {fileID: -6126746645354384401, guid: 4fd90ca55cd6d4e42bd9679d2bc0dc4d, type: 3}
    - {fileID: 2990493390978864817, guid: 4fd90ca55cd6d4e42bd9679d2bc0dc4d, type: 3}
    - {fileID: -2786331238167018718, guid: 4fd90ca55cd6d4e42bd9679d2bc0dc4d, type: 3}
    - {fileID: -4444752178724111745, guid: 4fd90ca55cd6d4e42bd9679d2bc0dc4d, type: 3}
    - {fileID: 1782900873588056695, guid: 4fd90ca55cd6d4e42bd9679d2bc0dc4d, type: 3}
    - {fileID: -7152224470875533404, guid: 4fd90ca55cd6d4e42bd9679d2bc0dc4d, type: 3}
    - {fileID: 7483363142473959995, guid: 4fd90ca55cd6d4e42bd9679d2bc0dc4d, type: 3}
    - {fileID: 2223956272848545170, guid: 4fd90ca55cd6d4e42bd9679d2bc0dc4d, type: 3}
    - {fileID: -898221585893318736, guid: 4fd90ca55cd6d4e42bd9679d2bc0dc4d, type: 3}
    - {fileID: -5412344436964035232, guid: 4fd90ca55cd6d4e42bd9679d2bc0dc4d, type: 3}
    - {fileID: 8119540360339246775, guid: 4fd90ca55cd6d4e42bd9679d2bc0dc4d, type: 3}
    - {fileID: -9220036589329865605, guid: 4fd90ca55cd6d4e42bd9679d2bc0dc4d, type: 3}
    - {fileID: 4888307295420968313, guid: 4fd90ca55cd6d4e42bd9679d2bc0dc4d, type: 3}
    - {fileID: 8255461209361531321, guid: 4fd90ca55cd6d4e42bd9679d2bc0dc4d, type: 3}
    - {fileID: 8942902939620416142, guid: 4fd90ca55cd6d4e42bd9679d2bc0dc4d, type: 3}
    - {fileID: 3213321072100643605, guid: 4fd90ca55cd6d4e42bd9679d2bc0dc4d, type: 3}
    - {fileID: -2010679181545164273, guid: 4fd90ca55cd6d4e42bd9679d2bc0dc4d, type: 3}
    - {fileID: 1339252702868872449, guid: 4fd90ca55cd6d4e42bd9679d2bc0dc4d, type: 3}
    - {fileID: 6683010304627739023, guid: 4fd90ca55cd6d4e42bd9679d2bc0dc4d, type: 3}
    - {fileID: 5166462774684348496, guid: 4fd90ca55cd6d4e42bd9679d2bc0dc4d, type: 3}
    - {fileID: 422065410153986026, guid: 4fd90ca55cd6d4e42bd9679d2bc0dc4d, type: 3}
    - {fileID: 665540292992914503, guid: 4fd90ca55cd6d4e42bd9679d2bc0dc4d, type: 3}
    - {fileID: 2739407449552376857, guid: 4fd90ca55cd6d4e42bd9679d2bc0dc4d, type: 3}
    - {fileID: -1941594331818043048, guid: 4fd90ca55cd6d4e42bd9679d2bc0dc4d, type: 3}
    - {fileID: -1362698067014156362, guid: 4fd90ca55cd6d4e42bd9679d2bc0dc4d, type: 3}
    - {fileID: 2456022197089939424, guid: 4fd90ca55cd6d4e42bd9679d2bc0dc4d, type: 3}
  m_AnimationClipSettings:
    serializedVersion: 2
    m_AdditiveReferencePoseClip: {fileID: 0}
    m_AdditiveReferencePoseTime: 0
    m_StartTime: 0
    m_StopTime: 1.1666666
    m_OrientationOffsetY: 0
    m_Level: 0
    m_CycleOffset: 0
    m_HasAdditiveReferencePose: 0
    m_LoopTime: 0
    m_LoopBlend: 0
    m_LoopBlendOrientation: 0
    m_LoopBlendPositionY: 0
    m_LoopBlendPositionXZ: 0
    m_KeepOriginalOrientation: 0
    m_KeepOriginalPositionY: 1
    m_KeepOriginalPositionXZ: 0
    m_HeightFromFeet: 0
    m_Mirror: 0
  m_EditorCurves: []
  m_EulerEditorCurves: []
  m_HasGenericRootTransform: 0
  m_HasMotionFloatCurves: 0
  m_Events: []
