%YAML 1.1
%TAG !u! tag:unity3d.com,2011:
--- !u!74 &7400000
AnimationClip:
  m_ObjectHideFlags: 0
  m_CorrespondingSourceObject: {fileID: 0}
  m_PrefabInstance: {fileID: 0}
  m_PrefabAsset: {fileID: 0}
  m_Name: idle
  serializedVersion: 6
  m_Legacy: 0
  m_Compressed: 0
  m_UseHighQualityCurve: 1
  m_RotationCurves: []
  m_CompressedRotationCurves: []
  m_EulerCurves: []
  m_PositionCurves: []
  m_ScaleCurves: []
  m_FloatCurves: []
  m_PPtrCurves:
  - curve:
    - time: 0
      value: {fileID: 4723107735738678597, guid: 108c68d04fff64447981fb7828eb43d8, type: 3}
    - time: 0.02
      value: {fileID: -7385789195546760866, guid: 108c68d04fff64447981fb7828eb43d8, type: 3}
    - time: 0.04
      value: {fileID: 3234629978573100161, guid: 108c68d04fff64447981fb7828eb43d8, type: 3}
    - time: 0.06
      value: {fileID: 6373048116405451881, guid: 108c68d04fff64447981fb7828eb43d8, type: 3}
    - time: 0.08
      value: {fileID: 7264182050183361747, guid: 108c68d04fff64447981fb7828eb43d8, type: 3}
    - time: 0.1
      value: {fileID: -2834552850196481573, guid: 108c68d04fff64447981fb7828eb43d8, type: 3}
    - time: 0.12
      value: {fileID: 3278449094680734212, guid: 108c68d04fff64447981fb7828eb43d8, type: 3}
    - time: 0.14
      value: {fileID: 3384493420599841878, guid: 108c68d04fff64447981fb7828eb43d8, type: 3}
    - time: 0.16
      value: {fileID: -2331352242086191015, guid: 108c68d04fff64447981fb7828eb43d8, type: 3}
    - time: 0.18
      value: {fileID: -3914248031228685145, guid: 108c68d04fff64447981fb7828eb43d8, type: 3}
    - time: 0.2
      value: {fileID: 7132915409514813599, guid: 108c68d04fff64447981fb7828eb43d8, type: 3}
    - time: 0.22
      value: {fileID: -2055793278435719954, guid: 108c68d04fff64447981fb7828eb43d8, type: 3}
    - time: 0.24
      value: {fileID: -1133706752296058015, guid: 108c68d04fff64447981fb7828eb43d8, type: 3}
    - time: 0.26
      value: {fileID: -7873313509577613512, guid: 108c68d04fff64447981fb7828eb43d8, type: 3}
    - time: 0.28
      value: {fileID: 719741960001666856, guid: 108c68d04fff64447981fb7828eb43d8, type: 3}
    - time: 0.3
      value: {fileID: -2017107389029466533, guid: 108c68d04fff64447981fb7828eb43d8, type: 3}
    - time: 0.32
      value: {fileID: -7851968663669621680, guid: 108c68d04fff64447981fb7828eb43d8, type: 3}
    - time: 0.34
      value: {fileID: -216799431487514718, guid: 108c68d04fff64447981fb7828eb43d8, type: 3}
    - time: 0.36
      value: {fileID: 3610992343889596186, guid: 108c68d04fff64447981fb7828eb43d8, type: 3}
    - time: 0.38
      value: {fileID: 6538181465538999060, guid: 108c68d04fff64447981fb7828eb43d8, type: 3}
    - time: 0.4
      value: {fileID: 6239617922696411994, guid: 108c68d04fff64447981fb7828eb43d8, type: 3}
    - time: 0.42
      value: {fileID: 3604202040009161566, guid: 108c68d04fff64447981fb7828eb43d8, type: 3}
    - time: 0.44
      value: {fileID: 7714808819881066536, guid: 108c68d04fff64447981fb7828eb43d8, type: 3}
    - time: 0.46
      value: {fileID: 4839914909742284145, guid: 108c68d04fff64447981fb7828eb43d8, type: 3}
    - time: 0.48
      value: {fileID: 5540120679197756244, guid: 108c68d04fff64447981fb7828eb43d8, type: 3}
    - time: 0.5
      value: {fileID: 3244912566212535839, guid: 108c68d04fff64447981fb7828eb43d8, type: 3}
    - time: 0.52
      value: {fileID: 6059227464253780763, guid: 108c68d04fff64447981fb7828eb43d8, type: 3}
    - time: 0.54
      value: {fileID: 7058787313458793172, guid: 108c68d04fff64447981fb7828eb43d8, type: 3}
    - time: 0.56
      value: {fileID: 3195378521950649799, guid: 108c68d04fff64447981fb7828eb43d8, type: 3}
    - time: 0.58
      value: {fileID: -4270365825416692982, guid: 108c68d04fff64447981fb7828eb43d8, type: 3}
    - time: 0.6
      value: {fileID: -7216628340827019732, guid: 108c68d04fff64447981fb7828eb43d8, type: 3}
    - time: 0.62
      value: {fileID: 1885325910487202945, guid: 108c68d04fff64447981fb7828eb43d8, type: 3}
    - time: 0.64
      value: {fileID: 750087330491524381, guid: 108c68d04fff64447981fb7828eb43d8, type: 3}
    - time: 0.66
      value: {fileID: -7683432258075436140, guid: 108c68d04fff64447981fb7828eb43d8, type: 3}
    attribute: m_Sprite
    path: 
    classID: 212
    script: {fileID: 0}
  m_SampleRate: 50
  m_WrapMode: 0
  m_Bounds:
    m_Center: {x: 0, y: 0, z: 0}
    m_Extent: {x: 0, y: 0, z: 0}
  m_ClipBindingConstant:
    genericBindings:
    - serializedVersion: 2
      path: 0
      attribute: 0
      script: {fileID: 0}
      typeID: 212
      customType: 23
      isPPtrCurve: 1
    pptrCurveMapping:
    - {fileID: 4723107735738678597, guid: 108c68d04fff64447981fb7828eb43d8, type: 3}
    - {fileID: -7385789195546760866, guid: 108c68d04fff64447981fb7828eb43d8, type: 3}
    - {fileID: 3234629978573100161, guid: 108c68d04fff64447981fb7828eb43d8, type: 3}
    - {fileID: 6373048116405451881, guid: 108c68d04fff64447981fb7828eb43d8, type: 3}
    - {fileID: 7264182050183361747, guid: 108c68d04fff64447981fb7828eb43d8, type: 3}
    - {fileID: -2834552850196481573, guid: 108c68d04fff64447981fb7828eb43d8, type: 3}
    - {fileID: 3278449094680734212, guid: 108c68d04fff64447981fb7828eb43d8, type: 3}
    - {fileID: 3384493420599841878, guid: 108c68d04fff64447981fb7828eb43d8, type: 3}
    - {fileID: -2331352242086191015, guid: 108c68d04fff64447981fb7828eb43d8, type: 3}
    - {fileID: -3914248031228685145, guid: 108c68d04fff64447981fb7828eb43d8, type: 3}
    - {fileID: 7132915409514813599, guid: 108c68d04fff64447981fb7828eb43d8, type: 3}
    - {fileID: -2055793278435719954, guid: 108c68d04fff64447981fb7828eb43d8, type: 3}
    - {fileID: -1133706752296058015, guid: 108c68d04fff64447981fb7828eb43d8, type: 3}
    - {fileID: -7873313509577613512, guid: 108c68d04fff64447981fb7828eb43d8, type: 3}
    - {fileID: 719741960001666856, guid: 108c68d04fff64447981fb7828eb43d8, type: 3}
    - {fileID: -2017107389029466533, guid: 108c68d04fff64447981fb7828eb43d8, type: 3}
    - {fileID: -7851968663669621680, guid: 108c68d04fff64447981fb7828eb43d8, type: 3}
    - {fileID: -216799431487514718, guid: 108c68d04fff64447981fb7828eb43d8, type: 3}
    - {fileID: 3610992343889596186, guid: 108c68d04fff64447981fb7828eb43d8, type: 3}
    - {fileID: 6538181465538999060, guid: 108c68d04fff64447981fb7828eb43d8, type: 3}
    - {fileID: 6239617922696411994, guid: 108c68d04fff64447981fb7828eb43d8, type: 3}
    - {fileID: 3604202040009161566, guid: 108c68d04fff64447981fb7828eb43d8, type: 3}
    - {fileID: 7714808819881066536, guid: 108c68d04fff64447981fb7828eb43d8, type: 3}
    - {fileID: 4839914909742284145, guid: 108c68d04fff64447981fb7828eb43d8, type: 3}
    - {fileID: 5540120679197756244, guid: 108c68d04fff64447981fb7828eb43d8, type: 3}
    - {fileID: 3244912566212535839, guid: 108c68d04fff64447981fb7828eb43d8, type: 3}
    - {fileID: 6059227464253780763, guid: 108c68d04fff64447981fb7828eb43d8, type: 3}
    - {fileID: 7058787313458793172, guid: 108c68d04fff64447981fb7828eb43d8, type: 3}
    - {fileID: 3195378521950649799, guid: 108c68d04fff64447981fb7828eb43d8, type: 3}
    - {fileID: -4270365825416692982, guid: 108c68d04fff64447981fb7828eb43d8, type: 3}
    - {fileID: -7216628340827019732, guid: 108c68d04fff64447981fb7828eb43d8, type: 3}
    - {fileID: 1885325910487202945, guid: 108c68d04fff64447981fb7828eb43d8, type: 3}
    - {fileID: 750087330491524381, guid: 108c68d04fff64447981fb7828eb43d8, type: 3}
    - {fileID: -7683432258075436140, guid: 108c68d04fff64447981fb7828eb43d8, type: 3}
  m_AnimationClipSettings:
    serializedVersion: 2
    m_AdditiveReferencePoseClip: {fileID: 0}
    m_AdditiveReferencePoseTime: 0
    m_StartTime: 0
    m_StopTime: 0.68
    m_OrientationOffsetY: 0
    m_Level: 0
    m_CycleOffset: 0
    m_HasAdditiveReferencePose: 0
    m_LoopTime: 1
    m_LoopBlend: 0
    m_LoopBlendOrientation: 0
    m_LoopBlendPositionY: 0
    m_LoopBlendPositionXZ: 0
    m_KeepOriginalOrientation: 0
    m_KeepOriginalPositionY: 1
    m_KeepOriginalPositionXZ: 0
    m_HeightFromFeet: 0
    m_Mirror: 0
  m_EditorCurves: []
  m_EulerEditorCurves: []
  m_HasGenericRootTransform: 0
  m_HasMotionFloatCurves: 0
  m_Events: []
