%YAML 1.1
%TAG !u! tag:unity3d.com,2011:
--- !u!74 &7400000
AnimationClip:
  m_ObjectHideFlags: 0
  m_CorrespondingSourceObject: {fileID: 0}
  m_PrefabInstance: {fileID: 0}
  m_PrefabAsset: {fileID: 0}
  m_Name: Run
  serializedVersion: 6
  m_Legacy: 0
  m_Compressed: 0
  m_UseHighQualityCurve: 1
  m_RotationCurves: []
  m_CompressedRotationCurves: []
  m_EulerCurves: []
  m_PositionCurves: []
  m_ScaleCurves: []
  m_FloatCurves: []
  m_PPtrCurves:
  - curve:
    - time: 0
      value: {fileID: -432731726981308715, guid: 9754d39e70ae99e409f14993b951b2fa, type: 3}
    - time: 0.033333335
      value: {fileID: 8551124423323264409, guid: 9754d39e70ae99e409f14993b951b2fa, type: 3}
    - time: 0.06666667
      value: {fileID: -8600065048725663906, guid: 9754d39e70ae99e409f14993b951b2fa, type: 3}
    - time: 0.1
      value: {fileID: 3241423924572654580, guid: 9754d39e70ae99e409f14993b951b2fa, type: 3}
    - time: 0.13333334
      value: {fileID: -5828329696384875631, guid: 9754d39e70ae99e409f14993b951b2fa, type: 3}
    - time: 0.16666667
      value: {fileID: 2022560608615539102, guid: 9754d39e70ae99e409f14993b951b2fa, type: 3}
    - time: 0.2
      value: {fileID: 6270924559744724765, guid: 9754d39e70ae99e409f14993b951b2fa, type: 3}
    - time: 0.23333333
      value: {fileID: 3172669726761555855, guid: 9754d39e70ae99e409f14993b951b2fa, type: 3}
    - time: 0.26666668
      value: {fileID: 3957893251674622928, guid: 9754d39e70ae99e409f14993b951b2fa, type: 3}
    - time: 0.3
      value: {fileID: 1465887317120085764, guid: 9754d39e70ae99e409f14993b951b2fa, type: 3}
    - time: 0.33333334
      value: {fileID: 5471086590305367197, guid: 9754d39e70ae99e409f14993b951b2fa, type: 3}
    - time: 0.36666667
      value: {fileID: 5209125476909916207, guid: 9754d39e70ae99e409f14993b951b2fa, type: 3}
    - time: 0.4
      value: {fileID: -8815717533442984555, guid: 9754d39e70ae99e409f14993b951b2fa, type: 3}
    - time: 0.43333334
      value: {fileID: -8968302299855106649, guid: 9754d39e70ae99e409f14993b951b2fa, type: 3}
    - time: 0.46666667
      value: {fileID: 8847621900663048646, guid: 9754d39e70ae99e409f14993b951b2fa, type: 3}
    - time: 0.5
      value: {fileID: -114792244115296761, guid: 9754d39e70ae99e409f14993b951b2fa, type: 3}
    - time: 0.53333336
      value: {fileID: 5402781286102983992, guid: 9754d39e70ae99e409f14993b951b2fa, type: 3}
    - time: 0.56666666
      value: {fileID: 8011178998892510919, guid: 9754d39e70ae99e409f14993b951b2fa, type: 3}
    - time: 0.6
      value: {fileID: -8143717303119721349, guid: 9754d39e70ae99e409f14993b951b2fa, type: 3}
    - time: 0.6333333
      value: {fileID: -2371571507864105488, guid: 9754d39e70ae99e409f14993b951b2fa, type: 3}
    - time: 0.6666667
      value: {fileID: -1018422883095592323, guid: 9754d39e70ae99e409f14993b951b2fa, type: 3}
    - time: 0.7
      value: {fileID: 4033437065222176047, guid: 9754d39e70ae99e409f14993b951b2fa, type: 3}
    attribute: m_Sprite
    path: 
    classID: 212
    script: {fileID: 0}
  m_SampleRate: 30
  m_WrapMode: 0
  m_Bounds:
    m_Center: {x: 0, y: 0, z: 0}
    m_Extent: {x: 0, y: 0, z: 0}
  m_ClipBindingConstant:
    genericBindings:
    - serializedVersion: 2
      path: 0
      attribute: 0
      script: {fileID: 0}
      typeID: 212
      customType: 23
      isPPtrCurve: 1
    pptrCurveMapping:
    - {fileID: -432731726981308715, guid: 9754d39e70ae99e409f14993b951b2fa, type: 3}
    - {fileID: 8551124423323264409, guid: 9754d39e70ae99e409f14993b951b2fa, type: 3}
    - {fileID: -8600065048725663906, guid: 9754d39e70ae99e409f14993b951b2fa, type: 3}
    - {fileID: 3241423924572654580, guid: 9754d39e70ae99e409f14993b951b2fa, type: 3}
    - {fileID: -5828329696384875631, guid: 9754d39e70ae99e409f14993b951b2fa, type: 3}
    - {fileID: 2022560608615539102, guid: 9754d39e70ae99e409f14993b951b2fa, type: 3}
    - {fileID: 6270924559744724765, guid: 9754d39e70ae99e409f14993b951b2fa, type: 3}
    - {fileID: 3172669726761555855, guid: 9754d39e70ae99e409f14993b951b2fa, type: 3}
    - {fileID: 3957893251674622928, guid: 9754d39e70ae99e409f14993b951b2fa, type: 3}
    - {fileID: 1465887317120085764, guid: 9754d39e70ae99e409f14993b951b2fa, type: 3}
    - {fileID: 5471086590305367197, guid: 9754d39e70ae99e409f14993b951b2fa, type: 3}
    - {fileID: 5209125476909916207, guid: 9754d39e70ae99e409f14993b951b2fa, type: 3}
    - {fileID: -8815717533442984555, guid: 9754d39e70ae99e409f14993b951b2fa, type: 3}
    - {fileID: -8968302299855106649, guid: 9754d39e70ae99e409f14993b951b2fa, type: 3}
    - {fileID: 8847621900663048646, guid: 9754d39e70ae99e409f14993b951b2fa, type: 3}
    - {fileID: -114792244115296761, guid: 9754d39e70ae99e409f14993b951b2fa, type: 3}
    - {fileID: 5402781286102983992, guid: 9754d39e70ae99e409f14993b951b2fa, type: 3}
    - {fileID: 8011178998892510919, guid: 9754d39e70ae99e409f14993b951b2fa, type: 3}
    - {fileID: -8143717303119721349, guid: 9754d39e70ae99e409f14993b951b2fa, type: 3}
    - {fileID: -2371571507864105488, guid: 9754d39e70ae99e409f14993b951b2fa, type: 3}
    - {fileID: -1018422883095592323, guid: 9754d39e70ae99e409f14993b951b2fa, type: 3}
    - {fileID: 4033437065222176047, guid: 9754d39e70ae99e409f14993b951b2fa, type: 3}
  m_AnimationClipSettings:
    serializedVersion: 2
    m_AdditiveReferencePoseClip: {fileID: 0}
    m_AdditiveReferencePoseTime: 0
    m_StartTime: 0
    m_StopTime: 0.73333335
    m_OrientationOffsetY: 0
    m_Level: 0
    m_CycleOffset: 0
    m_HasAdditiveReferencePose: 0
    m_LoopTime: 1
    m_LoopBlend: 0
    m_LoopBlendOrientation: 0
    m_LoopBlendPositionY: 0
    m_LoopBlendPositionXZ: 0
    m_KeepOriginalOrientation: 0
    m_KeepOriginalPositionY: 1
    m_KeepOriginalPositionXZ: 0
    m_HeightFromFeet: 0
    m_Mirror: 0
  m_EditorCurves: []
  m_EulerEditorCurves: []
  m_HasGenericRootTransform: 0
  m_HasMotionFloatCurves: 0
  m_Events: []
